^E:\C++_FOR_SB\MYSBPRJ\MATH.CPP
C:\WINDOWS\GLOBALIZATION\SORTING\SORTDEFAULT.NLS
E:\VS\VC\TOOLS\MSVC\14.39.33519\BIN\HOSTX64\X64\1033\CLUI.DLL
C:\WINDOWS\SYSTEM32\TZRES.DLL
^E:\C++_FOR_SB\MYSBPRJ\HELPERS.CPP
E:\C++_FOR_SB\MYSBPRJ\HELPERS.H
^E:\C++_FOR_SB\MYSBPRJ\MY_FILE.CPP
E:\VS\VC\TOOLS\MSVC\14.39.33519\INCLUDE\IOSTREAM
E:\VS\VC\TOOLS\MSVC\14.39.33519\INCLUDE\YVALS_CORE.H
E:\VS\VC\TOOLS\MSVC\14.39.33519\INCLUDE\VCRUNTIME.H
E:\VS\VC\TOOLS\MSVC\14.39.33519\INCLUDE\SAL.H
E:\VS\VC\TOOLS\MSVC\14.39.33519\INCLUDE\CONCURRENCYSAL.H
E:\VS\VC\TOOLS\MSVC\14.39.33519\INCLUDE\VADEFS.H
E:\VS\VC\TOOLS\MSVC\14.39.33519\INCLUDE\XKEYCHECK.H
E:\VS\VC\TOOLS\MSVC\14.39.33519\INCLUDE\ISTREAM
E:\VS\VC\TOOLS\MSVC\14.39.33519\INCLUDE\OSTREAM
E:\VS\VC\TOOLS\MSVC\14.39.33519\INCLUDE\IOS
E:\VS\VC\TOOLS\MSVC\14.39.33519\INCLUDE\XLOCNUM
E:\VS\VC\TOOLS\MSVC\14.39.33519\INCLUDE\CLIMITS
E:\VS\VC\TOOLS\MSVC\14.39.33519\INCLUDE\LIMITS.H
E:\VS\VC\TOOLS\MSVC\14.39.33519\INCLUDE\CMATH
E:\VS\VC\TOOLS\MSVC\14.39.33519\INCLUDE\YVALS.H
C:\PROGRAM FILES (X86)\WINDOWS KITS\10\INCLUDE\10.0.18362.0\UCRT\CRTDBG.H
C:\PROGRAM FILES (X86)\WINDOWS KITS\10\INCLUDE\10.0.18362.0\UCRT\CORECRT.H
E:\VS\VC\TOOLS\MSVC\14.39.33519\INCLUDE\VCRUNTIME_NEW_DEBUG.H
E:\VS\VC\TOOLS\MSVC\14.39.33519\INCLUDE\VCRUNTIME_NEW.H
E:\VS\VC\TOOLS\MSVC\14.39.33519\INCLUDE\CRTDEFS.H
E:\VS\VC\TOOLS\MSVC\14.39.33519\INCLUDE\USE_ANSI.H
E:\VS\VC\TOOLS\MSVC\14.39.33519\INCLUDE\CSTDLIB
C:\PROGRAM FILES (X86)\WINDOWS KITS\10\INCLUDE\10.0.18362.0\UCRT\MATH.H
C:\PROGRAM FILES (X86)\WINDOWS KITS\10\INCLUDE\10.0.18362.0\UCRT\CORECRT_MATH.H
C:\PROGRAM FILES (X86)\WINDOWS KITS\10\INCLUDE\10.0.18362.0\UCRT\STDLIB.H
C:\PROGRAM FILES (X86)\WINDOWS KITS\10\INCLUDE\10.0.18362.0\UCRT\CORECRT_MALLOC.H
C:\PROGRAM FILES (X86)\WINDOWS KITS\10\INCLUDE\10.0.18362.0\UCRT\CORECRT_SEARCH.H
C:\PROGRAM FILES (X86)\WINDOWS KITS\10\INCLUDE\10.0.18362.0\UCRT\STDDEF.H
C:\PROGRAM FILES (X86)\WINDOWS KITS\10\INCLUDE\10.0.18362.0\UCRT\CORECRT_WSTDLIB.H
E:\VS\VC\TOOLS\MSVC\14.39.33519\INCLUDE\XTR1COMMON
E:\VS\VC\TOOLS\MSVC\14.39.33519\INCLUDE\INTRIN0.H
E:\VS\VC\TOOLS\MSVC\14.39.33519\INCLUDE\INTRIN0.INL.H
E:\VS\VC\TOOLS\MSVC\14.39.33519\INCLUDE\CSTDIO
C:\PROGRAM FILES (X86)\WINDOWS KITS\10\INCLUDE\10.0.18362.0\UCRT\STDIO.H
C:\PROGRAM FILES (X86)\WINDOWS KITS\10\INCLUDE\10.0.18362.0\UCRT\CORECRT_WSTDIO.H
C:\PROGRAM FILES (X86)\WINDOWS KITS\10\INCLUDE\10.0.18362.0\UCRT\CORECRT_STDIO_CONFIG.H
E:\VS\VC\TOOLS\MSVC\14.39.33519\INCLUDE\ITERATOR
E:\VS\VC\TOOLS\MSVC\14.39.33519\INCLUDE\IOSFWD
E:\VS\VC\TOOLS\MSVC\14.39.33519\INCLUDE\CSTRING
C:\PROGRAM FILES (X86)\WINDOWS KITS\10\INCLUDE\10.0.18362.0\UCRT\STRING.H
C:\PROGRAM FILES (X86)\WINDOWS KITS\10\INCLUDE\10.0.18362.0\UCRT\CORECRT_MEMORY.H
C:\PROGRAM FILES (X86)\WINDOWS KITS\10\INCLUDE\10.0.18362.0\UCRT\CORECRT_MEMCPY_S.H
C:\PROGRAM FILES (X86)\WINDOWS KITS\10\INCLUDE\10.0.18362.0\UCRT\ERRNO.H
E:\VS\VC\TOOLS\MSVC\14.39.33519\INCLUDE\VCRUNTIME_STRING.H
C:\PROGRAM FILES (X86)\WINDOWS KITS\10\INCLUDE\10.0.18362.0\UCRT\CORECRT_WSTRING.H
E:\VS\VC\TOOLS\MSVC\14.39.33519\INCLUDE\CWCHAR
C:\PROGRAM FILES (X86)\WINDOWS KITS\10\INCLUDE\10.0.18362.0\UCRT\WCHAR.H
C:\PROGRAM FILES (X86)\WINDOWS KITS\10\INCLUDE\10.0.18362.0\UCRT\CORECRT_WCONIO.H
C:\PROGRAM FILES (X86)\WINDOWS KITS\10\INCLUDE\10.0.18362.0\UCRT\CORECRT_WCTYPE.H
C:\PROGRAM FILES (X86)\WINDOWS KITS\10\INCLUDE\10.0.18362.0\UCRT\CORECRT_WDIRECT.H
C:\PROGRAM FILES (X86)\WINDOWS KITS\10\INCLUDE\10.0.18362.0\UCRT\CORECRT_WIO.H
C:\PROGRAM FILES (X86)\WINDOWS KITS\10\INCLUDE\10.0.18362.0\UCRT\CORECRT_SHARE.H
C:\PROGRAM FILES (X86)\WINDOWS KITS\10\INCLUDE\10.0.18362.0\UCRT\CORECRT_WPROCESS.H
C:\PROGRAM FILES (X86)\WINDOWS KITS\10\INCLUDE\10.0.18362.0\UCRT\CORECRT_WTIME.H
C:\PROGRAM FILES (X86)\WINDOWS KITS\10\INCLUDE\10.0.18362.0\UCRT\SYS\STAT.H
C:\PROGRAM FILES (X86)\WINDOWS KITS\10\INCLUDE\10.0.18362.0\UCRT\SYS\TYPES.H
E:\VS\VC\TOOLS\MSVC\14.39.33519\INCLUDE\XUTILITY
E:\VS\VC\TOOLS\MSVC\14.39.33519\INCLUDE\__MSVC_ITER_CORE.HPP
E:\VS\VC\TOOLS\MSVC\14.39.33519\INCLUDE\UTILITY
E:\VS\VC\TOOLS\MSVC\14.39.33519\INCLUDE\INITIALIZER_LIST
E:\VS\VC\TOOLS\MSVC\14.39.33519\INCLUDE\CSTDDEF
E:\VS\VC\TOOLS\MSVC\14.39.33519\INCLUDE\TYPE_TRAITS
E:\VS\VC\TOOLS\MSVC\14.39.33519\INCLUDE\CSTDINT
E:\VS\VC\TOOLS\MSVC\14.39.33519\INCLUDE\STDINT.H
E:\VS\VC\TOOLS\MSVC\14.39.33519\INCLUDE\STREAMBUF
E:\VS\VC\TOOLS\MSVC\14.39.33519\INCLUDE\XIOSBASE
C:\PROGRAM FILES (X86)\WINDOWS KITS\10\INCLUDE\10.0.18362.0\UCRT\SHARE.H
E:\VS\VC\TOOLS\MSVC\14.39.33519\INCLUDE\SYSTEM_ERROR
E:\VS\VC\TOOLS\MSVC\14.39.33519\INCLUDE\__MSVC_SYSTEM_ERROR_ABI.HPP
E:\VS\VC\TOOLS\MSVC\14.39.33519\INCLUDE\CERRNO
E:\VS\VC\TOOLS\MSVC\14.39.33519\INCLUDE\STDEXCEPT
E:\VS\VC\TOOLS\MSVC\14.39.33519\INCLUDE\EXCEPTION
C:\PROGRAM FILES (X86)\WINDOWS KITS\10\INCLUDE\10.0.18362.0\UCRT\MALLOC.H
E:\VS\VC\TOOLS\MSVC\14.39.33519\INCLUDE\VCRUNTIME_EXCEPTION.H
E:\VS\VC\TOOLS\MSVC\14.39.33519\INCLUDE\EH.H
C:\PROGRAM FILES (X86)\WINDOWS KITS\10\INCLUDE\10.0.18362.0\UCRT\CORECRT_TERMINATE.H
E:\VS\VC\TOOLS\MSVC\14.39.33519\INCLUDE\XSTRING
E:\VS\VC\TOOLS\MSVC\14.39.33519\INCLUDE\__MSVC_SANITIZER_ANNOTATE_CONTAINER.HPP
E:\VS\VC\TOOLS\MSVC\14.39.33519\INCLUDE\XMEMORY
E:\VS\VC\TOOLS\MSVC\14.39.33519\INCLUDE\LIMITS
E:\VS\VC\TOOLS\MSVC\14.39.33519\INCLUDE\CFLOAT
C:\PROGRAM FILES (X86)\WINDOWS KITS\10\INCLUDE\10.0.18362.0\UCRT\FLOAT.H
E:\VS\VC\TOOLS\MSVC\14.39.33519\INCLUDE\NEW
E:\VS\VC\TOOLS\MSVC\14.39.33519\INCLUDE\XATOMIC.H
E:\VS\VC\TOOLS\MSVC\14.39.33519\INCLUDE\XCALL_ONCE.H
E:\VS\VC\TOOLS\MSVC\14.39.33519\INCLUDE\XERRC.H
E:\VS\VC\TOOLS\MSVC\14.39.33519\INCLUDE\ATOMIC
E:\VS\VC\TOOLS\MSVC\14.39.33519\INCLUDE\XTHREADS.H
E:\VS\VC\TOOLS\MSVC\14.39.33519\INCLUDE\XTIMEC.H
E:\VS\VC\TOOLS\MSVC\14.39.33519\INCLUDE\CTIME
C:\PROGRAM FILES (X86)\WINDOWS KITS\10\INCLUDE\10.0.18362.0\UCRT\TIME.H
E:\VS\VC\TOOLS\MSVC\14.39.33519\INCLUDE\XLOCALE
E:\VS\VC\TOOLS\MSVC\14.39.33519\INCLUDE\MEMORY
E:\VS\VC\TOOLS\MSVC\14.39.33519\INCLUDE\TYPEINFO
E:\VS\VC\TOOLS\MSVC\14.39.33519\INCLUDE\VCRUNTIME_TYPEINFO.H
E:\VS\VC\TOOLS\MSVC\14.39.33519\INCLUDE\XFACET
E:\VS\VC\TOOLS\MSVC\14.39.33519\INCLUDE\XLOCINFO
E:\VS\VC\TOOLS\MSVC\14.39.33519\INCLUDE\__MSVC_XLOCINFO_TYPES.HPP
E:\VS\VC\TOOLS\MSVC\14.39.33519\INCLUDE\CCTYPE
C:\PROGRAM FILES (X86)\WINDOWS KITS\10\INCLUDE\10.0.18362.0\UCRT\CTYPE.H
E:\VS\VC\TOOLS\MSVC\14.39.33519\INCLUDE\CLOCALE
C:\PROGRAM FILES (X86)\WINDOWS KITS\10\INCLUDE\10.0.18362.0\UCRT\LOCALE.H
E:\C++_FOR_SB\MYSBPRJ\MATH.H
E:\C++_FOR_SB\MYSBPRJ\HELPERS.H
